{
    "Metadata": {
         "Workstation": {
             "Sockets" : ["TRX4", "2066"],
             "StorageInterfaces" : ["M2", "PCIe3", "PCIe4"]
         } 
    },
    "CPUs": {
        "1150": {
            "APU": [
                "Intel_Celeron_G1820T",
                "Intel_Celeron_G1820TE",
                "Intel_Celeron_G1830",
                "Intel_Celeron_G1840T",
                "Intel_Core_i3-4130",
                "Intel_Core_i3-4130T",
                "Intel_Core_i3-4160T",
                "Intel_Core_i3-4170",
                "Intel_Core_i3-4170T",
                "Intel_Core_i3-4330",
                "Intel_Core_i3-4330T",
                "Intel_Core_i3-4330TE",
                "Intel_Core_i3-4340",
                "Intel_Core_i3-4350",
                "Intel_Core_i3-4350T",
                "Intel_Core_i3-4360T",
                "Intel_Core_i3-4370",
                "Intel_Core_i5-4430",
                "Intel_Core_i5-4430S",
                "Intel_Core_i5-4440S",
                "Intel_Core_i5-4460",
                "Intel_Core_i5-4460S",
                "Intel_Core_i5-4460T",
                "Intel_Core_i5-4570",
                "Intel_Core_i5-4570S",
                "Intel_Core_i5-4570T",
                "Intel_Core_i5-4570TE",
                "Intel_Core_i5-4590",
                "Intel_Core_i5-4590S",
                "Intel_Core_i5-4590T",
                "Intel_Core_i5-4670",
                "Intel_Core_i5-4670K",
                "Intel_Core_i5-4690",
                "Intel_Core_i5-4690K",
                "Intel_Core_i5-4690S",
                "Intel_Core_i5-4690T",
                "Intel_Core_i5-5575R",
                "Intel_Core_i7-4770",
                "Intel_Core_i7-4770K",
                "Intel_Core_i7-4770S",
                "Intel_Core_i7-4770T",
                "Intel_Core_i7-4770TE",
                "Intel_Core_i7-4771",
                "Intel_Core_i7-4790K",
                "Intel_Core_i7-4790S",
                "Intel_Core_i7-4790T",
                "Intel_Core_i7-5675C",
                "Intel_Core_i7-5775R",
                "Intel_Pentium_G3220T",
                "Intel_Pentium_G3240T",
                "Intel_Pentium_G3250",
                "Intel_Pentium_G3250T",
                "Intel_Pentium_G3260",
                "Intel_Pentium_G3260T",
                "Intel_Pentium_G3420T",
                "Intel_Pentium_G3440",
                "Intel_Pentium_G3440T",
                "Intel_Pentium_G3450T",
                "Intel_Pentium_G3460",
                "Intel_Pentium_G3470"
            ],
            "CPU": [
                "Intel_Xeon_E3-1220_v3",
                "Intel_Xeon_E3-1220L_v3",
                "Intel_Xeon_E3-1225_v3",
                "Intel_Xeon_E3-1230_v3",
                "Intel_Xeon_E3-1230L_v3",
                "Intel_Xeon_E3-1240_v3",
                "Intel_Xeon_E3-1241_v3",
                "Intel_Xeon_E3-1245_v3",
                "Intel_Xeon_E3-1268L_v3",
                "Intel_Xeon_E3-1270_v3",
                "Intel_Xeon_E3-1270L_v4",
                "Intel_Xeon_E3-1275_v3",
                "Intel_Xeon_E3-1275L_v3",
                "Intel_Xeon_E3-1280_v3",
                "Intel_Xeon_E3-1281_v3",
                "Intel_Xeon_E3-1285_v3",
                "Intel_Xeon_E3-1285L_v3",
                "Intel_Xeon_E3-1285L_v4",
                "Intel_Xeon_E3-1286_v3",
                "Intel_Xeon_E3-1286L_v3"
            ]
        },
        "1151": {
            "APU": [
                "Intel_Celeron_G4900",
                "Intel_Celeron_G4900T",
                "Intel_Celeron_G4920",
                "Intel_Celeron_G4930",
                "Intel_Core_i3-8100",
                "Intel_Core_i3-8100T",
                "Intel_Core_i3-8300",
                "Intel_Core_i3-8300T",
                "Intel_Core_i3-8350K",
                "Intel_Core_i3-9100",
                "Intel_Core_i3-9100T",
                "Intel_Core_i3-9300",
                "Intel_Core_i3-9300T",
                "Intel_Core_i3-9320",
                "Intel_Core_i5-8400",
                "Intel_Core_i5-8400T",
                "Intel_Core_i5-8500",
                "Intel_Core_i5-8500T",
                "Intel_Core_i5-8600",
                "Intel_Core_i5-8600K",
                "Intel_Core_i5-8600T",
                "Intel_Core_i5-9400",
                "Intel_Core_i5-9400T",
                "Intel_Core_i5-9500",
                "Intel_Core_i5-9500T",
                "Intel_Core_i5-9600",
                "Intel_Core_i5-9600K",
                "Intel_Core_i5-9600T",
                "Intel_Core_i7-8086K",
                "Intel_Core_i7-8700",
                "Intel_Core_i7-8700K",
                "Intel_Core_i7-8700T",
                "Intel_Core_i7-9700",
                "Intel_Core_i7-9700K",
                "Intel_Core_i7-9700T",
                "Intel_Core_i9-9900",
                "Intel_Core_i9-9900K",
                "Intel_Core_i9-9900KS",
                "Intel_Core_i9-9900T",
                "Intel_Pentium_Gold_G5400",
                "Intel_Pentium_Gold_G5400T",
                "Intel_Pentium_Gold_G5420",
                "Intel_Pentium_Gold_G5420T",
                "Intel_Pentium_Gold_G5500",
                "Intel_Pentium_Gold_G5500T",
                "Intel_Pentium_Gold_G5600",
                "Intel_Pentium_Gold_G5620",
                "Intel_Xeon_E-2104G",
                "Intel_Xeon_E-2124G",
                "Intel_Xeon_E-2126G",
                "Intel_Xeon_E-2144G",
                "Intel_Xeon_E-2146G",
                "Intel_Xeon_E-2174G",
                "Intel_Xeon_E-2176G",
                "Intel_Xeon_E-2186G",
                "Intel_Xeon_E-2224G",
                "Intel_Xeon_E-2226G",
                "Intel_Xeon_E-2244G",
                "Intel_Xeon_E-2246G",
                "Intel_Xeon_E-2274G",
                "Intel_Xeon_E-2276G",
                "Intel_Xeon_E-2278G",
                "Intel_Xeon_E-2278GEL",
                "Intel_Xeon_E-2286G",
                "Intel_Xeon_E-2288G"
            ],
            "CPU": [
                "Intel_Core_i3-9100F",
                "Intel_Core_i3-9350KF",
                "Intel_Core_i5-9500F",
                "Intel_Core_i5-9600KF",
                "Intel_Core_i7-9700F",
                "Intel_Core_i7-9700KF",
                "Intel_Core_i9-9900KF",
                "Intel_Pentium_Gold_G5600F",
                "Intel_Xeon_E-2124",
                "Intel_Xeon_E-2134",
                "Intel_Xeon_E-2136",
                "Intel_Xeon_E-2224",
                "Intel_Xeon_E-2236"
            ]
        },
        "2066": {
            "APU": [],
            "CPU": [
                "Intel_Core_i5-7640X",
                "Intel_Core_i7-7740X",
                "Intel_Core_i7-7800X",
                "Intel_Core_i7-7820X",
                "Intel_Core_i7-7900X",
                "Intel_Core_i7-9800X",
                "Intel_Core_i9-10900X",
                "Intel_Core_i9-10920X",
                "Intel_Core_i9-10940X",
                "Intel_Core_i9-10980XE",
                "Intel_Core_i9-7900X",
                "Intel_Core_i9-7920X",
                "Intel_Core_i9-7940X",
                "Intel_Core_i9-7960X",
                "Intel_Core_i9-7980XE",
                "Intel_Core_i9-9820X",
                "Intel_Core_i9-9900X",
                "Intel_Core_i9-9920X",
                "Intel_Core_i9-9940X",
                "Intel_Core_i9-9960X",
                "Intel_Core_i9-9980XE"
            ]
        },
        "AM4": {
            "APU": [
                "AMD_Athlon_200GE",
                "AMD_Athlon_220GE",
                "AMD_Athlon_240GE",
                "AMD_Athlon_3000G",
                "AMD_Athlon_300GE",
                "AMD_Athlon_PRO_200GE",
                "AMD_Athlon_PRO_300GE",
                "AMD_Ryzen_3_2200G",
                "AMD_Ryzen_3_2200GE",
                "AMD_Ryzen_3_3200G",
                "AMD_Ryzen_3_PRO_2100GE",
                "AMD_Ryzen_3_PRO_2200G",
                "AMD_Ryzen_3_PRO_2200GE",
                "AMD_Ryzen_3_PRO_3200G",
                "AMD_Ryzen_3_PRO_3200GE",
                "AMD_Ryzen_5_2400G",
                "AMD_Ryzen_5_2400GE",
                "AMD_Ryzen_5_3400G",
                "AMD_Ryzen_5_PRO_2400G",
                "AMD_Ryzen_5_PRO_2400GE",
                "AMD_Ryzen_5_PRO_3400G",
                "AMD_Ryzen_5_PRO_3400GE"
            ],
            "CPU": [
                "AMD_Athlon_X4_950",
                "AMD_Ryzen_3_1200",
                "AMD_Ryzen_3_1300X",
                "AMD_Ryzen_3_2300X",
                "AMD_Ryzen_3_PRO_1200",
                "AMD_Ryzen_3_PRO_1300",
                "AMD_Ryzen_5_1400",
                "AMD_Ryzen_5_1500X",
                "AMD_Ryzen_5_1600",
                "AMD_Ryzen_5_1600X",
                "AMD_Ryzen_5_2500X",
                "AMD_Ryzen_5_2600",
                "AMD_Ryzen_5_2600X",
                "AMD_Ryzen_5_3500",
                "AMD_Ryzen_5_3500X",
                "AMD_Ryzen_5_3600",
                "AMD_Ryzen_5_3600X",
                "AMD_Ryzen_5_PRO_1500",
                "AMD_Ryzen_5_PRO_1600",
                "AMD_Ryzen_5_PRO_2600",
                "AMD_Ryzen_5_PRO_3600",
                "AMD_Ryzen_7_1700",
                "AMD_Ryzen_7_1700X",
                "AMD_Ryzen_7_1800X",
                "AMD_Ryzen_7_2700",
                "AMD_Ryzen_7_2700E",
                "AMD_Ryzen_7_2700X",
                "AMD_Ryzen_7_3700X",
                "AMD_Ryzen_7_3800X",
                "AMD_Ryzen_7_PRO_1700",
                "AMD_Ryzen_7_PRO_1700X",
                "AMD_Ryzen_7_PRO_2700",
                "AMD_Ryzen_7_PRO_2700X",
                "AMD_Ryzen_7_PRO_3700",
                "AMD_Ryzen_9_3900",
                "AMD_Ryzen_9_3900X",
                "AMD_Ryzen_9_3950X",
                "AMD_Ryzen_9_PRO_3900"
            ]
        },
        "TRX4": {
            "APU": [],
            "CPU": [
                "AMD_Ryzen_Threadripper_3960X",
                "AMD_Ryzen_Threadripper_3970X",
                "AMD_Ryzen_Threadripper_3990X"
            ]
        }
    },
    "GPUs": {
        "PCIe3": [
            "Radeon_RX_590_GME",
            "GeForce_RTX_2060_TU104",
            "Radeon_540",
            "Radeon_550X",
            "Radeon_Pro_Vega_II",
            "Radeon_Pro_WX_3200",
            "Radeon_RX_540X",
            "Radeon_RX_560_XT",
            "Radeon_RX_640",
            "Radeon_VII",
            "GeForce_GTX_1650",
            "GeForce_GTX_1650_SUPER",
            "GeForce_GTX_1660",
            "GeForce_GTX_1660_SUPER",
            "GeForce_GTX_1660_Ti",
            "GeForce_RTX_2060",
            "GeForce_RTX_2060_SUPER",
            "GeForce_RTX_2070_SUPER",
            "GeForce_RTX_2080_SUPER",
            "Quadro_P2200",
            "Tesla_V100_SXM2_16_GB",
            "Tesla_V100S_PCIe_32_GB",
            "Radeon_540X",
            "Radeon_550X_640SP",
            "Radeon_Pro_V340",
            "Radeon_Pro_V340_MxGPU",
            "Radeon_Pro_WX_8200",
            "Radeon_RX_550X",
            "Radeon_RX_550X_640SP",
            "Radeon_RX_560DX",
            "Radeon_RX_560X",
            "Radeon_RX_570G",
            "Radeon_RX_570X",
            "Radeon_RX_580_2048SP",
            "Radeon_RX_580G",
            "Radeon_RX_580X",
            "Radeon_RX_590",
            "Radeon_RX_Vega_Nano",
            "GeForce_GT_1030_DDR4",
            "GeForce_GT_1030_GK107",
            "GeForce_GTX_1050_3_GB",
            "GeForce_GTX_1060_6_GB_GDDR5X",
            "GeForce_GTX_1060_6_GB_GP104",
            "GeForce_GTX_1060_6_GB_Rev._2",
            "GeForce_GTX_1060_8_GB_GDDR5X",
            "GeForce_GTX_1070_GDDR5X",
            "GeForce_GTX_1080_Ti_10_GB",
            "GeForce_RTX_2070",
            "GeForce_RTX_2080",
            "GeForce_RTX_2080_Ti",
            "Quadro_GV100",
            "Quadro_P620",
            "Quadro_RTX_4000",
            "Quadro_RTX_5000",
            "Quadro_RTX_6000",
            "Quadro_RTX_6000_Passive",
            "Quadro_RTX_8000",
            "Quadro_RTX_8000_Passive",
            "TITAN_RTX",
            "TITAN_V_CEO_Edition",
            "Tesla_T4",
            "Tesla_V100_DGXS",
            "Tesla_V100_FHHL",
            "Tesla_V100_PCIe_32_GB",
            "Tesla_V100_SXM2_32_GB",
            "Tesla_V100_SXM3_32_GB",
            "Radeon_550",
            "Radeon_Instinct_MI25",
            "Radeon_Instinct_MI25_MxGPU",
            "Radeon_Pro_Duo_Polaris",
            "Radeon_Pro_SSG",
            "Radeon_Pro_V320",
            "Radeon_Pro_V320_MxGPU",
            "Radeon_Pro_WX_2100",
            "Radeon_Pro_WX_3100",
            "Radeon_Pro_WX_8100",
            "Radeon_Pro_WX_9100",
            "Radeon_RX_460_1024SP",
            "Radeon_RX_550",
            "Radeon_RX_550_640SP",
            "Radeon_RX_560",
            "Radeon_RX_560_896SP",
            "Radeon_RX_560D",
            "Radeon_RX_570",
            "Radeon_RX_580",
            "Radeon_RX_Vega_56",
            "Radeon_RX_Vega_64",
            "Radeon_RX_Vega_64_Limited_Edition",
            "Radeon_RX_Vega_64_Liquid_Cooling",
            "Radeon_Vega_Frontier_Edition",
            "Radeon_Vega_Frontier_Edition_Watercooled",
            "GeForce_GT_1030",
            "GeForce_GTX_1060_5_GB",
            "GeForce_GTX_1060_6_GB_9Gbps",
            "GeForce_GTX_1070_Ti",
            "GeForce_GTX_1080_11Gbps",
            "GeForce_GTX_1080_Ti",
            "Quadro_P1000",
            "Quadro_P2000",
            "Quadro_P400",
            "Quadro_P4000",
            "Quadro_P600",
            "TITAN_V",
            "TITAN_Xp",
            "Tesla_V100_PCIe_16_GB"
        ],
        "PCIe4": [
            "Radeon_Pro_W5500",
            "Radeon_RX_5600_OEM",
            "Radeon_RX_5600_XT",
            "Radeon_Pro_W5700",
            "Radeon_RX_5300_XT",
            "Radeon_RX_5500_OEM",
            "Radeon_RX_5500_XT",
            "Radeon_RX_5700",
            "Radeon_RX_5700_XT",
            "Radeon_RX_5700_XT_50th_Anniversary",
            "Radeon_Instinct_MI50",
            "Radeon_Instinct_MI60"
        ]
    },
    "MainMemory": {
        "DDR3": [
            "CMY8GX3M2A2666C10",
            "CMY16GX3M4A3000C12",
            "Mushkin_996902",
            "PUD32800C124G2LSK",
            "IM34GU48Y29-CEEHM",
            "Mushkin_994164",
            "CMD16GX3M4A2666C11",
            "CM3X8GA2400C11Y2R",
            "IMT451U6MFR8Y-DC0",
            "CMY32GX3M4B2666C11",
            "PUD32400C114G2LSK",
            "F3-19200CL9-4GBZMD",
            "F3-19200C11-4GBXLD",
            "CMD16GX3M4A2666C10",
            "F3-17600CL7-2GBPIS",
            "AMD_R538G1601U2S",
            "CMG4GX3M2A2000C8",
            "F3-17600CL9-2GBXLD",
            "IMT451U6MFR8W-TA2",
            "SL8D316E11D8EF",
            "IMT451U6MFR8Y-AB1",
            "9905403-160.A02LF",
            "F3-2600C10-4GTXD",
            "M391B1G73BH0-YH9",
            "CMD8GX3M2A2133C8",
            "CMY8GX3M2A2133C8",
            "F3-16000CL9-4GBFL",
            "F3-2666C10-4GTXD",
            "M393B1K70DH0-CK0",
            "TX2400KLU-4GK",
            "TX2133KLN-4GK",
            "F3-2666C11-8GTXD",
            "F3-2933C12-4GTXDG",
            "CMG4GX3M2A1600C7",
            "9905403-156.A00LF"
        ],
        "DDR4": [
            "F4-4500C19-8GTZSWE",
            "F4-4500C19-8GTZKKE",
            "F4-4000C19-16GTZKK",
            "KHX4266C19D4/8GX",
            "F4-4600C18-8GTZR",
            "CMW16GX4M2K3600C16",
            "F4-4600C19-8GTZSWC",
            "F4-3733C17-16GTZKK",
            "F4-3200C15-8GTZKY",
            "CMK16GX4M2F4500C19",
            "F4-4400C19-8GTZSW",
            "78.CAGNK.4040B",
            "F4-4133C19-8GTZR",
            "F4-4266C19-8GTZSW",
            "F4-3400C16-8GSXW",
            "CMK32GX4M2K3600C16",
            "F4-4400C18-8GTZR",
            "CMK32GX4M4K4266C19",
            "TA48G30S815GK",
            "F4-4000C17-8GTRS",
            "CM4X8GD3600C18K2D",
            "78.CAGN4.4020B",
            "TEAMGROUP-D4-3600",
            "CMK16GX4M2F4400C19",
            "F4-3600C16-8GTZN",
            "F4-3600C17-8GTZSW",
            "CMT32GX4M4K3600C16",
            "TEAMGROUP-D4-3866",
            "CMW32GX4M4C3200C14",
            "78.CAGNT.AR40B",
            "F4-4000C17-8GTZR",
            "BLE8G4D36BEEAK.M8FE1",
            "CMD8GX4M2B4000C19",
            "F4-3600C16-8GTRG",
            "CMR16GX4M2K4266C19",
            "CMK16GX4M2K4266C16",
            "BLE8G4D36BEEAK.M8FE3",
            "F4-3600C16-16GTZN",
            "F4-3733C17-16GTZSW",
            "F4-3733C17-8GTZSW",
            "CMD32GX4M2C3200C14M",
            "KHX4000C19D4/8GX",
            "F4-3200C14-16GTZKO",
            "CMT16GX4M2K3600C16",
            "F4-3600C15-8GTZ",
            "F4-4266C19-8GTRG",
            "CMD8GX4M2B3866C18",
            "F4-4600C19-8GTZKKC"
        ]
    },
    "Motherboards": [
        {
            "interfaces": [
                "AM4",
                "DDR4",
                "PCIe3",
                "M2",
                "SATA3"
            ],
            "name": "Gigabyte_B450_Aorus_Elite"
        },
        {
            "interfaces": [
                "AM4",
                "DDR4",
                "PCIe3",
                "M2",
                "SATA3"
            ],
            "name": "Asrock_B450M_Steel_Legend"
        },
        {
            "interfaces": [
                "AM4",
                "DDR4",
                "PCIe3",
                "M2",
                "SATA3"
            ],
            "name": "Gigabyte_B450M_Gaming"
        },
        {
            "interfaces": [
                "AM4",
                "DDR4",
                "PCIe3",
                "M2",
                "SATA3"
            ],
            "name": "MSI_B450_Gaming_Pro_Carbon_AC"
        },
        {
            "interfaces": [
                "AM4",
                "DDR4",
                "PCIe3",
                "M2",
                "SATA3"
            ],
            "name": "MSI_B450M_Pro-M2"
        },
        {
            "interfaces": [
                "AM4",
                "DDR4",
                "PCIe3",
                "M2",
                "SATA3"
            ],
            "name": "Asrock_B450M-HDV_R4.0"
        },
        {
            "interfaces": [
                "AM4",
                "DDR4",
                "PCIe3",
                "M2",
                "SATA3"
            ],
            "name": "Asrock_B450_Steel_Legend"
        },
        {
            "interfaces": [
                "AM4",
                "DDR4",
                "PCIe3",
                "M2",
                "SATA3"
            ],
            "name": "Asrock_B450M-HDV"
        },
        {
            "interfaces": [
                "AM4",
                "DDR4",
                "PCIe3",
                "M2",
                "SATA3"
            ],
            "name": "MSI_B450M_Bazooka_Plus"
        },
        {
            "interfaces": [
                "AM4",
                "DDR4",
                "PCIe3",
                "M2",
                "SATA3"
            ],
            "name": "MSI_B450M_Pro-VDH"
        },
        {
            "interfaces": [
                "AM4",
                "DDR4",
                "PCIe3",
                "M2",
                "SATA3"
            ],
            "name": "MSI_B450_Tomahawk"
        },
        {
            "interfaces": [
                "AM4",
                "DDR4",
                "PCIe3",
                "M2",
                "SATA3"
            ],
            "name": "Asrock_B450_Pro4"
        },
        {
            "interfaces": [
                "AM4",
                "DDR4",
                "PCIe3",
                "M2",
                "SATA3"
            ],
            "name": "Asrock_B450M_Pro4"
        },
        {
            "interfaces": [
                "AM4",
                "DDR4",
                "PCIe3",
                "M2",
                "SATA3"
            ],
            "name": "Asus_ROG_Strix_B450-F_Gaming"
        },
        {
            "interfaces": [
                "AM4",
                "DDR4",
                "PCIe3",
                "M2",
                "SATA3"
            ],
            "name": "Gigabyte_B450M_DS3H"
        },
        {
            "interfaces": [
                "AM4",
                "DDR4",
                "PCIe3",
                "M2",
                "SATA3"
            ],
            "name": "Gigabyte_B450_Aorus_Pro_WiFi"
        },
        {
            "interfaces": [
                "AM4",
                "DDR4",
                "PCIe3",
                "M2",
                "SATA3"
            ],
            "name": "Asus_TUF_B450M-Pro_Gaming"
        },
        {
            "interfaces": [
                "AM4",
                "DDR4",
                "PCIe3",
                "M2",
                "SATA3"
            ],
            "name": "MSI_B450M_Mortar"
        },
        {
            "interfaces": [
                "AM4",
                "DDR4",
                "PCIe3",
                "M2",
                "SATA3"
            ],
            "name": "Asus_Prime_B450M-A"
        },
        {
            "interfaces": [
                "AM4",
                "DDR4",
                "PCIe3",
                "M2",
                "SATA3"
            ],
            "name": "Gigabyte_B450_Aorus_M"
        },
        {
            "interfaces": [
                "AM4",
                "DDR4",
                "PCIe3",
                "M2",
                "SATA3"
            ],
            "name": "MSI_B450-A_Pro"
        },
        {
            "interfaces": [
                "AM4",
                "DDR4",
                "PCIe3",
                "M2",
                "SATA3"
            ],
            "name": "Gigabyte_B450_I_Aorus_Pro_WiFi"
        },
        {
            "interfaces": [
                "AM4",
                "DDR4",
                "PCIe3",
                "M2",
                "SATA3"
            ],
            "name": "Asrock_Fatal1ty_B450_Gaming_K4"
        },
        {
            "interfaces": [
                "AM4",
                "DDR4",
                "PCIe3",
                "M2",
                "SATA3"
            ],
            "name": "MSI_B450_Gaming_Plus"
        },
        {
            "interfaces": [
                "AM4",
                "DDR4",
                "PCIe3",
                "M2",
                "SATA3"
            ],
            "name": "Gigabyte_B450_Aorus_Pro"
        },
        {
            "interfaces": [
                "AM4",
                "DDR4",
                "PCIe3",
                "M2",
                "SATA3"
            ],
            "name": "Asrock_Fatal1ty_B450_Gaming-ITX/ac"
        },
        {
            "interfaces": [
                "AM4",
                "DDR4",
                "PCIe3",
                "M2",
                "SATA3"
            ],
            "name": "MSI_B450M_Gaming_Plus"
        },
        {
            "interfaces": [
                "AM4",
                "DDR4",
                "PCIe3",
                "M2",
                "SATA3"
            ],
            "name": "Asus_TUF_B450M-Plus_Gaming"
        },
        {
            "interfaces": [
                "AM4",
                "DDR4",
                "PCIe3",
                "M2",
                "SATA3"
            ],
            "name": "Asus_TUF_B450-Pro_Gaming"
        },
        {
            "interfaces": [
                "AM4",
                "DDR4",
                "PCIe3",
                "M2",
                "SATA3"
            ],
            "name": "Asus_Prime_B450-Plus"
        },
        {
            "interfaces": [
                "AM4",
                "DDR4",
                "PCIe3",
                "M2",
                "SATA3"
            ],
            "name": "Asus_ROG_Strix_B450-I_Gaming"
        },
        {
            "interfaces": [
                "AM4",
                "DDR4",
                "PCIe3",
                "M2",
                "SATA3"
            ],
            "name": "Asus_ROG_Strix_B450-E_Gaming"
        },
        {
            "interfaces": [
                "AM4",
                "DDR4",
                "PCIe3",
                "M2",
                "SATA3"
            ],
            "name": "MSI_B450I_Gaming_Plus_AC"
        },
        {
            "interfaces": [
                "AM4",
                "DDR4",
                "PCIe3",
                "M2",
                "SATA3"
            ],
            "name": "Gigabyte_B450M_S2H"
        },
        {
            "interfaces": [
                "AM4",
                "DDR4",
                "PCIe3",
                "M2",
                "SATA3"
            ],
            "name": "MSI_B450M_Mortar_Titanium"
        },
        {
            "interfaces": [
                "AM4",
                "DDR4",
                "PCIe3",
                "M2",
                "SATA3"
            ],
            "name": "MSI_B450M_Bazooka"
        },
        {
            "interfaces": [
                "AM4",
                "DDR4",
                "PCIe3",
                "M2",
                "SATA3"
            ],
            "name": "Asus_Prime_B450M-K"
        },
        {
            "interfaces": [
                "AM4",
                "DDR4",
                "PCIe3",
                "M2",
                "SATA3"
            ],
            "name": "Asus_TUF_B450-Plus_Gaming"
        },
        {
            "interfaces": [
                "AM4",
                "DDR4",
                "PCIe3",
                "M2",
                "SATA3"
            ],
            "name": "Asrock_B450M_Pro4-F"
        },
        {
            "interfaces": [
                "AM4",
                "DDR4",
                "PCIe3",
                "M2",
                "SATA3"
            ],
            "name": "Biostar_B450GT3"
        },
        {
            "interfaces": [
                "AM4",
                "DDR4",
                "PCIe3",
                "M2",
                "SATA3"
            ],
            "name": "Biostar_B450MHC"
        },
        {
            "interfaces": [
                "AM4",
                "DDR4",
                "PCIe3",
                "M2",
                "SATA3"
            ],
            "name": "Biostar_B450MH"
        },
        {
            "interfaces": [
                "AM4",
                "DDR4",
                "PCIe4",
                "M2",
                "SATA3"
            ],
            "name": "Gigabyte_X570I_Aorus_Pro_Wifi"
        },
        {
            "interfaces": [
                "AM4",
                "DDR4",
                "PCIe4",
                "M2",
                "SATA3"
            ],
            "name": "Gigabyte_X570_Aorus_Elite"
        },
        {
            "interfaces": [
                "AM4",
                "DDR4",
                "PCIe4",
                "M2",
                "SATA3"
            ],
            "name": "MSI_MPG_X570_Gaming_Edge_Wifi"
        },
        {
            "interfaces": [
                "AM4",
                "DDR4",
                "PCIe4",
                "M2",
                "SATA3"
            ],
            "name": "MSI_MPG_X570_Gaming_Plus"
        },
        {
            "interfaces": [
                "AM4",
                "DDR4",
                "PCIe4",
                "M2",
                "SATA3"
            ],
            "name": "MSI_MPG_X570_Gaming_Pro_Carbon_Wifi"
        },
        {
            "interfaces": [
                "AM4",
                "DDR4",
                "PCIe4",
                "M2",
                "SATA3"
            ],
            "name": "Asrock_X570_Creator"
        },
        {
            "interfaces": [
                "AM4",
                "DDR4",
                "PCIe4",
                "M2",
                "SATA3"
            ],
            "name": "Asus_ROG_Strix_X570-E_Gaming"
        },
        {
            "interfaces": [
                "AM4",
                "DDR4",
                "PCIe4",
                "M2",
                "SATA3"
            ],
            "name": "Asrock_X570_Taichi"
        },
        {
            "interfaces": [
                "AM4",
                "DDR4",
                "PCIe4",
                "M2",
                "SATA3"
            ],
            "name": "Asrock_X570M_Pro4"
        },
        {
            "interfaces": [
                "AM4",
                "DDR4",
                "PCIe4",
                "M2",
                "SATA3"
            ],
            "name": "Asus_ROG_Strix_X570-F_Gaming"
        },
        {
            "interfaces": [
                "AM4",
                "DDR4",
                "PCIe4",
                "M2",
                "SATA3"
            ],
            "name": "Gigabyte_X570_Aorus_Ultra"
        },
        {
            "interfaces": [
                "AM4",
                "DDR4",
                "PCIe4",
                "M2",
                "SATA3"
            ],
            "name": "Asus_Pro_WS_X570-Ace"
        },
        {
            "interfaces": [
                "AM4",
                "DDR4",
                "PCIe4",
                "M2",
                "SATA3"
            ],
            "name": "Gigabyte_X570_Aorus_Xtreme"
        },
        {
            "interfaces": [
                "AM4",
                "DDR4",
                "PCIe4",
                "M2",
                "SATA3"
            ],
            "name": "Gigabyte_X570_Aorus_Master"
        },
        {
            "interfaces": [
                "AM4",
                "DDR4",
                "PCIe4",
                "M2",
                "SATA3"
            ],
            "name": "Asrock_X570_Phantom_Gaming-ITX/TB3"
        },
        {
            "interfaces": [
                "AM4",
                "DDR4",
                "PCIe4",
                "M2",
                "SATA3"
            ],
            "name": "Asrock_X570_Phantom_Gaming_4_WiFi_ax"
        },
        {
            "interfaces": [
                "AM4",
                "DDR4",
                "PCIe4",
                "M2",
                "SATA3"
            ],
            "name": "Asrock_X570_Steel_Legend_WiFi_ax"
        },
        {
            "interfaces": [
                "AM4",
                "DDR4",
                "PCIe4",
                "M2",
                "SATA3"
            ],
            "name": "Asrock_X570_Pro4"
        },
        {
            "interfaces": [
                "AM4",
                "DDR4",
                "PCIe4",
                "M2",
                "SATA3"
            ],
            "name": "Asrock_X570_Phantom_Gaming_X"
        },
        {
            "interfaces": [
                "AM4",
                "DDR4",
                "PCIe4",
                "M2",
                "SATA3"
            ],
            "name": "MSI_MEG_X570_Godlike"
        },
        {
            "interfaces": [
                "AM4",
                "DDR4",
                "PCIe4",
                "M2",
                "SATA3"
            ],
            "name": "Asrock_X570_Phantom_Gaming_4"
        },
        {
            "interfaces": [
                "AM4",
                "DDR4",
                "PCIe4",
                "M2",
                "SATA3"
            ],
            "name": "Gigabyte_X570_Aorus_Pro_Wifi"
        },
        {
            "interfaces": [
                "AM4",
                "DDR4",
                "PCIe4",
                "M2",
                "SATA3"
            ],
            "name": "MSI_MEG_X570_Creation"
        },
        {
            "interfaces": [
                "AM4",
                "DDR4",
                "PCIe4",
                "M2",
                "SATA3"
            ],
            "name": "Asus_ROG_Crosshair_VIII_Formula"
        },
        {
            "interfaces": [
                "AM4",
                "DDR4",
                "PCIe4",
                "M2",
                "SATA3"
            ],
            "name": "Gigabyte_X570_Aorus_Pro"
        },
        {
            "interfaces": [
                "AM4",
                "DDR4",
                "PCIe4",
                "M2",
                "SATA3"
            ],
            "name": "Asus_Prime_X570-P"
        },
        {
            "interfaces": [
                "AM4",
                "DDR4",
                "PCIe4",
                "M2",
                "SATA3"
            ],
            "name": "Asus_Prime_X570-Pro"
        },
        {
            "interfaces": [
                "AM4",
                "DDR4",
                "PCIe4",
                "M2",
                "SATA3"
            ],
            "name": "Asrock_X570_Extreme4_WiFi_ax"
        },
        {
            "interfaces": [
                "AM4",
                "DDR4",
                "PCIe4",
                "M2",
                "SATA3"
            ],
            "name": "Gigabyte_X570_Gaming_X"
        },
        {
            "interfaces": [
                "AM4",
                "DDR4",
                "PCIe4",
                "M2",
                "SATA3"
            ],
            "name": "MSI_MEG_X570_Ace"
        },
        {
            "interfaces": [
                "AM4",
                "DDR4",
                "PCIe4",
                "M2",
                "SATA3"
            ],
            "name": "Asrock_X570_Extreme4"
        },
        {
            "interfaces": [
                "AM4",
                "DDR4",
                "PCIe4",
                "M2",
                "SATA3"
            ],
            "name": "Asrock_X570_Steel_Legend"
        },
        {
            "interfaces": [
                "AM4",
                "DDR4",
                "PCIe4",
                "M2",
                "SATA3"
            ],
            "name": "Asus_ROG_Crosshair_VIII_Hero_Wi-Fi"
        },
        {
            "interfaces": [
                "AM4",
                "DDR4",
                "PCIe4",
                "M2",
                "SATA3"
            ],
            "name": "Asus_ROG_Crosshair_VIII_Hero"
        },
        {
            "interfaces": [
                "AM4",
                "DDR4",
                "PCIe4",
                "M2",
                "SATA3"
            ],
            "name": "Asrock_X570_Aqua"
        },
        {
            "interfaces": [
                "1151",
                "DDR4",
                "PCIe3",
                "M2",
                "SATA3"
            ],
            "name": "Gigabyte_Z370P_D3"
        },
        {
            "interfaces": [
                "1151",
                "DDR4",
                "PCIe3",
                "M2",
                "SATA3"
            ],
            "name": "Gigabyte_Z390_UD"
        },
        {
            "interfaces": [
                "1151",
                "DDR4",
                "PCIe3",
                "M2",
                "SATA3"
            ],
            "name": "Asrock_Z370_Pro4"
        },
        {
            "interfaces": [
                "1151",
                "DDR4",
                "PCIe3",
                "M2",
                "SATA3"
            ],
            "name": "MSI_Z390-A_Pro"
        },
        {
            "interfaces": [
                "1151",
                "DDR4",
                "PCIe3",
                "M2",
                "SATA3"
            ],
            "name": "Gigabyte_Z370_Aorus_Gaming_5"
        },
        {
            "interfaces": [
                "1151",
                "DDR4",
                "PCIe3",
                "M2",
                "SATA3"
            ],
            "name": "Asus_ROG_Maximus_X_Hero"
        },
        {
            "interfaces": [
                "1151",
                "DDR4",
                "PCIe3",
                "M2",
                "SATA3"
            ],
            "name": "Gigabyte_Z370_HD3"
        },
        {
            "interfaces": [
                "1151",
                "DDR4",
                "PCIe3",
                "M2",
                "SATA3"
            ],
            "name": "Gigabyte_Z370M_D3H"
        },
        {
            "interfaces": [
                "1151",
                "DDR4",
                "PCIe3",
                "M2",
                "SATA3"
            ],
            "name": "Asus_Prime_Z390-A"
        },
        {
            "interfaces": [
                "1151",
                "DDR4",
                "PCIe3",
                "M2",
                "SATA3"
            ],
            "name": "Asrock_Z370_Extreme4"
        },
        {
            "interfaces": [
                "1151",
                "DDR4",
                "PCIe3",
                "M2",
                "SATA3"
            ],
            "name": "Asus_Prime_Z370-P"
        },
        {
            "interfaces": [
                "1151",
                "DDR4",
                "PCIe3",
                "M2",
                "SATA3"
            ],
            "name": "Gigabyte_Z390_Gaming_X"
        },
        {
            "interfaces": [
                "1151",
                "DDR4",
                "PCIe3",
                "M2",
                "SATA3"
            ],
            "name": "MSI_Z370-A_Pro"
        },
        {
            "interfaces": [
                "1151",
                "DDR4",
                "PCIe3",
                "M2",
                "SATA3"
            ],
            "name": "MSI_Z370_Gaming_Plus"
        },
        {
            "interfaces": [
                "1151",
                "DDR4",
                "PCIe3",
                "M2",
                "SATA3"
            ],
            "name": "Gigabyte_Z370_Aorus_Gaming_3"
        },
        {
            "interfaces": [
                "1151",
                "DDR4",
                "PCIe3",
                "M2",
                "SATA3"
            ],
            "name": "Gigabyte_Z370_Aorus_Gaming_Wifi"
        },
        {
            "interfaces": [
                "1151",
                "DDR4",
                "PCIe3",
                "M2",
                "SATA3"
            ],
            "name": "Gigabyte_Z370_Aorus_Gaming_7"
        },
        {
            "interfaces": [
                "1151",
                "DDR4",
                "PCIe3",
                "M2",
                "SATA3"
            ],
            "name": "Asrock_Z370M_Pro4"
        },
        {
            "interfaces": [
                "1151",
                "DDR4",
                "PCIe3",
                "M2",
                "SATA3"
            ],
            "name": "Asus_ROG_Maximus_X_Code"
        },
        {
            "interfaces": [
                "1151",
                "DDR4",
                "PCIe3",
                "M2",
                "SATA3"
            ],
            "name": "Asus_Prime_Z370-A"
        },
        {
            "interfaces": [
                "1151",
                "DDR4",
                "PCIe3",
                "M2",
                "SATA3"
            ],
            "name": "Gigabyte_Z390_Aorus_Ultra"
        },
        {
            "interfaces": [
                "1151",
                "DDR4",
                "PCIe3",
                "M2",
                "SATA3"
            ],
            "name": "Gigabyte_Z370_Aorus_Ultra_Gaming"
        },
        {
            "interfaces": [
                "1151",
                "DDR4",
                "PCIe3",
                "M2",
                "SATA3"
            ],
            "name": "Gigabyte_Z390_Aorus_Elite"
        },
        {
            "interfaces": [
                "1151",
                "DDR4",
                "PCIe3",
                "M2",
                "SATA3"
            ],
            "name": "Gigabyte_Z390_Aorus_Pro_Wifi"
        },
        {
            "interfaces": [
                "1151",
                "DDR4",
                "PCIe3",
                "M2",
                "SATA3"
            ],
            "name": "Asus_ROG_Strix_Z370-G_Gaming_Wi-Fi_AC"
        },
        {
            "interfaces": [
                "1151",
                "DDR4",
                "PCIe3",
                "M2",
                "SATA3"
            ],
            "name": "Asrock_Fatal1ty_Z370_Gaming-ITX/ac"
        },
        {
            "interfaces": [
                "1151",
                "DDR4",
                "PCIe3",
                "M2",
                "SATA3"
            ],
            "name": "Asus_ROG_Maximus_X_Apex"
        },
        {
            "interfaces": [
                "1151",
                "DDR4",
                "PCIe3",
                "M2",
                "SATA3"
            ],
            "name": "Asus_ROG_Maximus_X_Hero_Wi-Fi_AC"
        },
        {
            "interfaces": [
                "1151",
                "DDR4",
                "PCIe3",
                "M2",
                "SATA3"
            ],
            "name": "Asus_ROG_Strix_Z370-E_Gaming"
        },
        {
            "interfaces": [
                "1151",
                "DDR4",
                "PCIe3",
                "M2",
                "SATA3"
            ],
            "name": "Gigabyte_Z370XP_SLI"
        },
        {
            "interfaces": [
                "1151",
                "DDR4",
                "PCIe3",
                "M2",
                "SATA3"
            ],
            "name": "Gigabyte_Z370M_DS3H"
        },
        {
            "interfaces": [
                "1151",
                "DDR4",
                "PCIe3",
                "M2",
                "SATA3"
            ],
            "name": "Asus_ROG_Strix_Z390-H_Gaming"
        },
        {
            "interfaces": [
                "1151",
                "DDR4",
                "PCIe3",
                "M2",
                "SATA3"
            ],
            "name": "Asus_Prime_Z390-P"
        },
        {
            "interfaces": [
                "1151",
                "DDR4",
                "PCIe3",
                "M2",
                "SATA3"
            ],
            "name": "Gigabyte_Z370_HD3P"
        },
        {
            "interfaces": [
                "1151",
                "DDR4",
                "PCIe3",
                "M2",
                "SATA3"
            ],
            "name": "Asrock_Z370_Taichi"
        },
        {
            "interfaces": [
                "1151",
                "DDR4",
                "PCIe3",
                "M2",
                "SATA3"
            ],
            "name": "Asrock_Fatal1ty_Z370_Gaming_K6"
        },
        {
            "interfaces": [
                "1151",
                "DDR4",
                "PCIe3",
                "M2",
                "SATA3"
            ],
            "name": "MSI_Z370_PC_Pro"
        },
        {
            "interfaces": [
                "1151",
                "DDR4",
                "PCIe3",
                "M2",
                "SATA3"
            ],
            "name": "Asrock_Z370M-ITX/ac"
        },
        {
            "interfaces": [
                "1151",
                "DDR4",
                "PCIe3",
                "M2",
                "SATA3"
            ],
            "name": "Asus_ROG_Maximus_XI_Extreme"
        },
        {
            "interfaces": [
                "1151",
                "DDR4",
                "PCIe3",
                "M2",
                "SATA3"
            ],
            "name": "Asus_ROG_Maximus_X_Formula"
        },
        {
            "interfaces": [
                "1151",
                "DDR4",
                "PCIe3",
                "M2",
                "SATA3"
            ],
            "name": "Asrock_Z370_Killer_SLI/ac"
        },
        {
            "interfaces": [
                "1151",
                "DDR4",
                "PCIe3",
                "M2",
                "SATA3"
            ],
            "name": "MSI_MPG_Z390_Gaming_Pro_Carbon_AC"
        },
        {
            "interfaces": [
                "1151",
                "DDR4",
                "PCIe3",
                "M2",
                "SATA3"
            ],
            "name": "Asrock_Fatal1ty_Z370_Professional_Gaming_i7"
        },
        {
            "interfaces": [
                "1151",
                "DDR4",
                "PCIe3",
                "M2",
                "SATA3"
            ],
            "name": "MSI_Z370_Gaming_M5"
        },
        {
            "interfaces": [
                "1151",
                "DDR4",
                "PCIe3",
                "M2",
                "SATA3"
            ],
            "name": "Supermicro_C7Z370-CG-L"
        },
        {
            "interfaces": [
                "1151",
                "DDR4",
                "PCIe3",
                "M2",
                "SATA3"
            ],
            "name": "MSI_Z370_Godlike_Gaming"
        },
        {
            "interfaces": [
                "1151",
                "DDR4",
                "PCIe3",
                "M2",
                "SATA3"
            ],
            "name": "Gigabyte_Z390_M_Gaming"
        },
        {
            "interfaces": [
                "1151",
                "DDR4",
                "PCIe3",
                "M2",
                "SATA3"
            ],
            "name": "MSI_Z370_Gaming_Pro_Carbon_AC"
        },
        {
            "interfaces": [
                "1151",
                "DDR4",
                "PCIe3",
                "M2",
                "SATA3"
            ],
            "name": "Gigabyte_Z370_Aorus_Gaming_K3"
        },
        {
            "interfaces": [
                "1151",
                "DDR4",
                "PCIe3",
                "M2",
                "SATA3"
            ],
            "name": "MSI_Z370_Tomahawk"
        },
        {
            "interfaces": [
                "TRX4",
                "DDR4",
                "PCIe4",
                "M2",
                "SATA3"
            ],
            "name": "GIGABYTE_TRX40_AORUS_PRO_WIFI"
        },
        {
            "interfaces": [
                "TRX4",
                "DDR4",
                "PCIe4",
                "M2",
                "SATA3"
            ],
            "name": "ASROCK_TRX40_Creator"
        },
        {
            "interfaces": [
                "TRX4",
                "DDR4",
                "PCIe4",
                "M2",
                "SATA3"
            ],
            "name": "ASUS_ROG_STRIX_TRX40-E"
        },
        {
            "interfaces": [
                "TRX4",
                "DDR4",
                "PCIe4",
                "M2",
                "SATA3"
            ],
            "name": "MSI_TRX40_PRO_WIFI"
        },
        {
            "interfaces": [
                "TRX4",
                "DDR4",
                "PCIe4",
                "M2",
                "SATA3"
            ],
            "name": "ASROCK_TRX40_Taichi"
        },
        {
            "interfaces": [
                "TRX4",
                "DDR4",
                "PCIe4",
                "M2",
                "SATA3"
            ],
            "name": "GIGABYTE_TRX40_AORUS_MASTER"
        },
        {
            "interfaces": [
                "TRX4",
                "DDR4",
                "PCIe4",
                "M2",
                "SATA3"
            ],
            "name": "MSI_TRX40_PRO_10G"
        },
        {
            "interfaces": [
                "TRX4",
                "DDR4",
                "PCIe4",
                "M2",
                "SATA3"
            ],
            "name": "MSI_Creator_TRX40"
        },
        {
            "interfaces": [
                "TRX4",
                "DDR4",
                "PCIe4",
                "M2",
                "SATA3"
            ],
            "name": "ASUS_ROG_ZENITH_II_EXTREME"
        },
        {
            "interfaces": [
                "TRX4",
                "DDR4",
                "PCIe4",
                "M2",
                "SATA3"
            ],
            "name": "GIGABYTE_TRX40_DESIGNARE"
        },
        {
            "interfaces": [
                "2066",
                "DDR4",
                "PCIe3",
                "M2",
                "SATA3"
            ],
            "name": "Gigabyte_X299_UD4_Pro"
        },
        {
            "interfaces": [
                "2066",
                "DDR4",
                "PCIe3",
                "M2",
                "SATA3"
            ],
            "name": "Asus_Prime_X299-Deluxe"
        },
        {
            "interfaces": [
                "2066",
                "DDR4",
                "PCIe3",
                "M2",
                "SATA3"
            ],
            "name": "MSI_X299_SLI_Plus"
        },
        {
            "interfaces": [
                "2066",
                "DDR4",
                "PCIe3",
                "M2",
                "SATA3"
            ],
            "name": "MSI_X299M-A_Pro"
        },
        {
            "interfaces": [
                "2066",
                "DDR4",
                "PCIe3",
                "M2",
                "SATA3"
            ],
            "name": "Gigabyte_X299_Designare_EX"
        },
        {
            "interfaces": [
                "2066",
                "DDR4",
                "PCIe3",
                "M2",
                "SATA3"
            ],
            "name": "Asus_ROG_Rampage_VI_Extreme"
        },
        {
            "interfaces": [
                "2066",
                "DDR4",
                "PCIe3",
                "M2",
                "SATA3"
            ],
            "name": "Gigabyte_X299_UD4"
        },
        {
            "interfaces": [
                "2066",
                "DDR4",
                "PCIe3",
                "M2",
                "SATA3"
            ],
            "name": "Asus_TUF_X299_Mark_2"
        },
        {
            "interfaces": [
                "2066",
                "DDR4",
                "PCIe3",
                "M2",
                "SATA3"
            ],
            "name": "Asus_Prime_X299-A"
        },
        {
            "interfaces": [
                "2066",
                "DDR4",
                "PCIe3",
                "M2",
                "SATA3"
            ],
            "name": "Gigabyte_X299_Aorus_Ultra_Gaming_Pro"
        },
        {
            "interfaces": [
                "2066",
                "DDR4",
                "PCIe3",
                "M2",
                "SATA3"
            ],
            "name": "Asrock_Fatal1ty_X299_Professional_Gaming_i9"
        },
        {
            "interfaces": [
                "2066",
                "DDR4",
                "PCIe3",
                "M2",
                "SATA3"
            ],
            "name": "Gigabyte_X299_Aorus_Gaming_3"
        },
        {
            "interfaces": [
                "2066",
                "DDR4",
                "PCIe3",
                "M2",
                "SATA3"
            ],
            "name": "Asrock_X299_Taichi"
        },
        {
            "interfaces": [
                "2066",
                "DDR4",
                "PCIe3",
                "M2",
                "SATA3"
            ],
            "name": "Asus_WS_X299_Sage"
        },
        {
            "interfaces": [
                "2066",
                "DDR4",
                "PCIe3",
                "M2",
                "SATA3"
            ],
            "name": "Gigabyte_X299_Aorus_Gaming_9"
        },
        {
            "interfaces": [
                "2066",
                "DDR4",
                "PCIe3",
                "M2",
                "SATA3"
            ],
            "name": "Asrock_Fatal1ty_X299_Gaming_K6"
        },
        {
            "interfaces": [
                "2066",
                "DDR4",
                "PCIe3",
                "M2",
                "SATA3"
            ],
            "name": "Gigabyte_X299_Aorus_Gaming_7"
        },
        {
            "interfaces": [
                "2066",
                "DDR4",
                "PCIe3",
                "M2",
                "SATA3"
            ],
            "name": "MSI_X299_Raider"
        },
        {
            "interfaces": [
                "2066",
                "DDR4",
                "PCIe3",
                "M2",
                "SATA3"
            ],
            "name": "Gigabyte_X299_UD4_EX"
        },
        {
            "interfaces": [
                "2066",
                "DDR4",
                "PCIe3",
                "M2",
                "SATA3"
            ],
            "name": "Gigabyte_X299_Aorus_Ultra_Gaming"
        },
        {
            "interfaces": [
                "2066",
                "DDR4",
                "PCIe3",
                "M2",
                "SATA3"
            ],
            "name": "Asrock_X299_OC_Formula"
        },
        {
            "interfaces": [
                "2066",
                "DDR4",
                "PCIe3",
                "M2",
                "SATA3"
            ],
            "name": "EVGA_X299_Micro"
        },
        {
            "interfaces": [
                "2066",
                "DDR4",
                "PCIe3",
                "M2",
                "SATA3"
            ],
            "name": "Asus_TUF_X299_Mark_1"
        },
        {
            "interfaces": [
                "2066",
                "DDR4",
                "PCIe3",
                "M2",
                "SATA3"
            ],
            "name": "Asrock_Fatal1ty_X299_Professional_Gaming_i9_XE"
        },
        {
            "interfaces": [
                "2066",
                "DDR4",
                "PCIe3",
                "M2",
                "SATA3"
            ],
            "name": "MSI_X299_Gaming_Pro_Carbon_AC"
        },
        {
            "interfaces": [
                "2066",
                "DDR4",
                "PCIe3",
                "M2",
                "SATA3"
            ],
            "name": "Colorful_iGame_X299_Vulcan_X_White"
        },
        {
            "interfaces": [
                "2066",
                "DDR4",
                "PCIe3",
                "M2",
                "SATA3"
            ],
            "name": "Asrock_X299E-ITX/ac"
        },
        {
            "interfaces": [
                "2066",
                "DDR4",
                "PCIe3",
                "M2",
                "SATA3"
            ],
            "name": "MSI_X299_Tomahawk_AC"
        },
        {
            "interfaces": [
                "2066",
                "DDR4",
                "PCIe3",
                "M2",
                "SATA3"
            ],
            "name": "MSI_X299_XPower_Gaming_AC"
        },
        {
            "interfaces": [
                "2066",
                "DDR4",
                "PCIe3",
                "M2",
                "SATA3"
            ],
            "name": "Asus_ROG_Rampage_VI_Apex"
        },
        {
            "interfaces": [
                "2066",
                "DDR4",
                "PCIe3",
                "M2",
                "SATA3"
            ],
            "name": "Gigabyte_X299_Aorus_Gaming_3_Pro"
        },
        {
            "interfaces": [
                "2066",
                "DDR4",
                "PCIe3",
                "M2",
                "SATA3"
            ],
            "name": "Asus_ROG_Strix_X299-XE_Gaming"
        },
        {
            "interfaces": [
                "2066",
                "DDR4",
                "PCIe3",
                "M2",
                "SATA3"
            ],
            "name": "Asus_WS_X299_Pro"
        },
        {
            "interfaces": [
                "2066",
                "DDR4",
                "PCIe3",
                "M2",
                "SATA3"
            ],
            "name": "Asus_ROG_Strix_X299-E_Gaming"
        },
        {
            "interfaces": [
                "2066",
                "DDR4",
                "PCIe3",
                "M2",
                "SATA3"
            ],
            "name": "Asrock_X299_Killer_SLI/ac"
        },
        {
            "interfaces": [
                "2066",
                "DDR4",
                "PCIe3",
                "M2",
                "SATA3"
            ],
            "name": "Asrock_X299_Taichi_XE"
        },
        {
            "interfaces": [
                "2066",
                "DDR4",
                "PCIe3",
                "M2",
                "SATA3"
            ],
            "name": "MSI_X299_Tomahawk_Arctic"
        },
        {
            "interfaces": [
                "2066",
                "DDR4",
                "PCIe3",
                "M2",
                "SATA3"
            ],
            "name": "EVGA_X299_Dark"
        },
        {
            "interfaces": [
                "2066",
                "DDR4",
                "PCIe3",
                "M2",
                "SATA3"
            ],
            "name": "EVGA_X299_FTW-K"
        },
        {
            "interfaces": [
                "2066",
                "DDR4",
                "PCIe3",
                "M2",
                "SATA3"
            ],
            "name": "Gigabyte_X299_Aorus_Gaming_7_Pro"
        },
        {
            "interfaces": [
                "2066",
                "DDR4",
                "PCIe3",
                "M2",
                "SATA3"
            ],
            "name": "Gigabyte_X299_Aorus_Gaming"
        },
        {
            "interfaces": [
                "2066",
                "DDR4",
                "PCIe3",
                "M2",
                "SATA3"
            ],
            "name": "Gigabyte_X299-WU8"
        },
        {
            "interfaces": [
                "2066",
                "DDR4",
                "PCIe3",
                "M2",
                "SATA3"
            ],
            "name": "MSI_X299_Tomahawk"
        },
        {
            "interfaces": [
                "2066",
                "DDR4",
                "PCIe3",
                "M2",
                "SATA3"
            ],
            "name": "MSI_X299_Gaming_M7_ACK"
        },
        {
            "interfaces": [
                "2066",
                "DDR4",
                "PCIe3",
                "M2",
                "SATA3"
            ],
            "name": "Gigabyte_X299_Aorus_Master"
        },
        {
            "interfaces": [
                "2066",
                "DDR4",
                "PCIe3",
                "M2",
                "SATA3"
            ],
            "name": "MSI_X299M_Gaming_Pro_Carbon_AC"
        },
        {
            "interfaces": [
                "2066",
                "DDR4",
                "PCIe3",
                "M2",
                "SATA3"
            ],
            "name": "MSI_X299_Gaming_Pro_Carbon"
        },
        {
            "interfaces": [
                "2066",
                "DDR4",
                "PCIe3",
                "M2",
                "SATA3"
            ],
            "name": "Colorful_iGame_X299_Vulcan_X_Black"
        },
        {
            "interfaces": [
                "2066",
                "DDR4",
                "PCIe3",
                "M2",
                "SATA3"
            ],
            "name": "Asrock_X299M_Extreme4"
        },
        {
            "interfaces": [
                "2066",
                "DDR4",
                "PCIe3",
                "M2",
                "SATA3"
            ],
            "name": "EVGA_X299_Micro_ATX_2"
        },
        {
            "interfaces": [
                "1150",
                "DDR3",
                "PCIe3",
                "SATA3"
            ],
            "name": "Asrock_Z97E-ITX/ac"
        },
        {
            "interfaces": [
                "1150",
                "DDR3",
                "PCIe3",
                "SATA3"
            ],
            "name": "Asus_ROG_Maximus_VII_Gene"
        },
        {
            "interfaces": [
                "1150",
                "DDR3",
                "PCIe3",
                "SATA3"
            ],
            "name": "Asus_ROG_Maximus_VII_Hero"
        },
        {
            "interfaces": [
                "1150",
                "DDR3",
                "PCIe3",
                "SATA3"
            ],
            "name": "Asus_ROG_Maximus_VI_Extreme"
        },
        {
            "interfaces": [
                "1150",
                "DDR3",
                "PCIe3",
                "SATA3"
            ],
            "name": "MSI_Z97-S02"
        },
        {
            "interfaces": [
                "1150",
                "DDR3",
                "PCIe3",
                "SATA3"
            ],
            "name": "Asus_ROG_Maximus_VI_Gene"
        },
        {
            "interfaces": [
                "1150",
                "DDR3",
                "PCIe3",
                "SATA3"
            ],
            "name": "Asus_ROG_Maximus_VI_Hero"
        },
        {
            "interfaces": [
                "1150",
                "DDR3",
                "PCIe3",
                "SATA3"
            ],
            "name": "Asus_ROG_Maximus_VII_Ranger"
        },
        {
            "interfaces": [
                "1150",
                "DDR3",
                "PCIe3",
                "SATA3"
            ],
            "name": "Asus_ROG_Maximus_VI_Impact"
        },
        {
            "interfaces": [
                "1150",
                "DDR3",
                "PCIe3",
                "SATA3"
            ],
            "name": "Asus_ROG_Maximus_VII_Impact"
        },
        {
            "interfaces": [
                "1150",
                "DDR3",
                "PCIe3",
                "SATA3"
            ],
            "name": "EVGA_Z97_Classified"
        },
        {
            "interfaces": [
                "1150",
                "DDR3",
                "PCIe3",
                "SATA3"
            ],
            "name": "MSI_Z97-G55_SLI"
        },
        {
            "interfaces": [
                "1150",
                "DDR3",
                "PCIe3",
                "SATA3"
            ],
            "name": "EVGA_Z97_Stinger_WiFi"
        },
        {
            "interfaces": [
                "1150",
                "DDR3",
                "PCIe3",
                "SATA3"
            ],
            "name": "Asrock_H97M-ITX/ac"
        },
        {
            "interfaces": [
                "1150",
                "DDR3",
                "PCIe3",
                "SATA3"
            ],
            "name": "MSI_Z97A_SLI_Krait_Edition"
        },
        {
            "interfaces": [
                "1150",
                "DDR3",
                "PCIe3",
                "SATA3"
            ],
            "name": "Asrock_Z97_Extreme9"
        },
        {
            "interfaces": [
                "1150",
                "DDR3",
                "PCIe3",
                "SATA3"
            ],
            "name": "MSI_Z97-G43_Gaming"
        },
        {
            "interfaces": [
                "1150",
                "DDR3",
                "PCIe3",
                "SATA3"
            ],
            "name": "EVGA_Z97_FTW"
        },
        {
            "interfaces": [
                "1150",
                "DDR3",
                "PCIe3",
                "SATA3"
            ],
            "name": "MSI_Z97-GD65_Gaming"
        },
        {
            "interfaces": [
                "1150",
                "DDR3",
                "PCIe3",
                "SATA3"
            ],
            "name": "MSI_Z97-G45_Gaming"
        },
        {
            "interfaces": [
                "1150",
                "DDR3",
                "PCIe3",
                "SATA3"
            ],
            "name": "Asrock_H97M_Pro4"
        },
        {
            "interfaces": [
                "1150",
                "DDR3",
                "PCIe3",
                "SATA3"
            ],
            "name": "Asrock_Z97M_OC_Formula"
        },
        {
            "interfaces": [
                "1150",
                "DDR3",
                "PCIe3",
                "SATA3"
            ],
            "name": "Asrock_H97M_Anniversary"
        },
        {
            "interfaces": [
                "1150",
                "DDR3",
                "PCIe3",
                "SATA3"
            ],
            "name": "Asrock_H97_Pro4"
        },
        {
            "interfaces": [
                "1150",
                "DDR3",
                "PCIe3",
                "SATA3"
            ],
            "name": "Asrock_H97_Anniversary"
        },
        {
            "interfaces": [
                "1150",
                "DDR3",
                "PCIe3",
                "SATA3"
            ],
            "name": "MSI_Z97_Guard-Pro"
        },
        {
            "interfaces": [
                "1150",
                "DDR3",
                "PCIe3",
                "SATA3"
            ],
            "name": "Asrock_Z97_OC_Formula"
        },
        {
            "interfaces": [
                "1150",
                "DDR3",
                "PCIe3",
                "SATA3"
            ],
            "name": "MSI_Z97_Gaming_9_AC"
        },
        {
            "interfaces": [
                "1150",
                "DDR3",
                "PCIe3",
                "SATA3"
            ],
            "name": "EVGA_Z97_Stinger_Core3D"
        },
        {
            "interfaces": [
                "1150",
                "DDR3",
                "PCIe3",
                "SATA3"
            ],
            "name": "Asrock_Fatal1ty_H97_Performance"
        },
        {
            "interfaces": [
                "1150",
                "DDR3",
                "PCIe3",
                "SATA3"
            ],
            "name": "Asrock_Fatal1ty_H97_Killer"
        },
        {
            "interfaces": [
                "1150",
                "DDR3",
                "PCIe3",
                "SATA3"
            ],
            "name": "MSI_Z97_Gaming_9_ACK"
        },
        {
            "interfaces": [
                "1150",
                "DDR3",
                "PCIe3",
                "SATA3"
            ],
            "name": "MSI_Z97_MPower"
        },
        {
            "interfaces": [
                "1150",
                "DDR3",
                "PCIe3",
                "SATA3"
            ],
            "name": "MSI_Z97_U3_Plus"
        },
        {
            "interfaces": [
                "1150",
                "DDR3",
                "PCIe3",
                "SATA3"
            ],
            "name": "Asrock_Fatal1ty_Z97M_Killer"
        },
        {
            "interfaces": [
                "1150",
                "DDR3",
                "PCIe3",
                "SATA3"
            ],
            "name": "MSI_Z97I_Gaming_ACK"
        },
        {
            "interfaces": [
                "1150",
                "DDR3",
                "PCIe3",
                "SATA3"
            ],
            "name": "Gigabyte_GA-Z97N-Wifi_Rev._1.1"
        },
        {
            "interfaces": [
                "1150",
                "DDR3",
                "PCIe3",
                "SATA3"
            ],
            "name": "MSI_Z97_Gaming_5"
        },
        {
            "interfaces": [
                "1150",
                "DDR3",
                "PCIe3",
                "SATA3"
            ],
            "name": "Asrock_H97M"
        },
        {
            "interfaces": [
                "1150",
                "DDR3",
                "PCIe3",
                "SATA3"
            ],
            "name": "MSI_Z97_PC_Mate"
        },
        {
            "interfaces": [
                "1150",
                "DDR3",
                "PCIe3",
                "SATA3"
            ],
            "name": "MSI_Z97_XPower_AC"
        },
        {
            "interfaces": [
                "1150",
                "DDR3",
                "PCIe3",
                "SATA3"
            ],
            "name": "Asrock_Z97_Extreme4"
        },
        {
            "interfaces": [
                "1150",
                "DDR3",
                "PCIe3",
                "SATA3"
            ],
            "name": "Asrock_Z97_Anniversary"
        },
        {
            "interfaces": [
                "1150",
                "DDR3",
                "PCIe3",
                "SATA3"
            ],
            "name": "Asrock_Fatal1ty_Z97_Killer"
        },
        {
            "interfaces": [
                "1150",
                "DDR3",
                "PCIe3",
                "SATA3"
            ],
            "name": "Gigabyte_GA-Z97N-Wifi_Rev._1.0"
        },
        {
            "interfaces": [
                "1150",
                "DDR3",
                "PCIe3",
                "SATA3"
            ],
            "name": "MSI_Z97_Gaming_7"
        },
        {
            "interfaces": [
                "1150",
                "DDR3",
                "PCIe3",
                "SATA3"
            ],
            "name": "Asrock_Z97M_Anniversary"
        },
        {
            "interfaces": [
                "1150",
                "DDR3",
                "PCIe3",
                "SATA3"
            ],
            "name": "MSI_Z97I_AC"
        },
        {
            "interfaces": [
                "1150",
                "DDR3",
                "PCIe3",
                "SATA3"
            ],
            "name": "MSI_Z97M_Gaming"
        },
        {
            "interfaces": [
                "1150",
                "DDR3",
                "PCIe3",
                "SATA3"
            ],
            "name": "MSI_Z97M-G43"
        }
    ],
    "Storage": {
        "M2": {
            "HDD": [],
            "SSD": [
                "MZ-V7S500BW",
                "MZ-V7S500B/AM",
                "MZ-V7E500BW",
                "MZ-V7E250BW",
                "MZ-V6E500BW",
                "MZ-V6E250BW"
            ]
        },
        "PCIe3": {
            "HDD": [],
            "SSD": [
                "N2M99AA"
            ]
        },
        "PCIe4": {
            "HDD": [],
            "SSD": [
                "CSSD-F2000GBMP600",
                "GP-ASM2NE6500GTTD"
            ]
        },
        "SATA3": {
            "HDD": [
                "ST2000DM006",
                "ST3000DM001",
                "ST1000DM010",
                "ST2000DM001",
                "ST1000DM003",
                "HDWD110XZSTA",
                "HDWD110EZSTA",
                "HDWD110UZSVA",
                "WD1003FZEX",
                "WD10EZEX",
                "WD20EZRZ",
                "WD20EZRX",
                "HD103SJ",
                "HTS721010A9E630",
                "ST500DM002",
                "WD1002FAEX",
                "ST3500418AS",
                "ST31000524AS",
                "WD5000AAKX",
                "WD20EARX",
                "WD5000AAKS",
                "WD10JPVX",
                "HTS541010A9E680",
                "ST1000LM024",
                "ST500LT012"
            ],
            "SSD": [
                "MZ-76E1T0B",
                "MZ-75E500B",
                "MZ-76E500B",
                "MZ-76E250B",
                "MZ-75E250B",
                "MZ-7TE250BW",
                "SV300S37A/240G",
                "SA400S37/240G",
                "SV300S37A/120G"
            ]
        }
    }
}
